<svg xmlns="http://www.w3.org/2000/svg" width="30.653" height="22.99" viewBox="0 0 30.653 22.99">
  <path id="Icon_awesome-envelope" data-name="Icon awesome-envelope" d="M30.072,12.091a.36.36,0,0,1,.581.281V24.616a2.874,2.874,0,0,1-2.874,2.874H2.874A2.874,2.874,0,0,1,0,24.616V12.379A.358.358,0,0,1,.581,12.1c1.341,1.042,3.119,2.365,9.226,6.8,1.263.922,3.395,2.862,5.52,2.85,2.137.018,4.311-1.964,5.526-2.85C26.959,14.462,28.731,13.133,30.072,12.091ZM15.326,19.826c1.389.024,3.389-1.748,4.394-2.479C27.665,11.582,28.27,11.08,30.1,9.643a1.433,1.433,0,0,0,.551-1.132V7.374A2.874,2.874,0,0,0,27.779,4.5H2.874A2.874,2.874,0,0,0,0,7.374V8.511A1.441,1.441,0,0,0,.551,9.643c1.832,1.431,2.437,1.94,10.381,7.705C11.938,18.078,13.937,19.85,15.326,19.826Z" transform="translate(0 -4.5)" fill="#f9f9f9"/>
</svg>
